<?xml version="1.0" encoding="UTF-8" standalone="no"?>
<svg
   xmlns:dc="http://purl.org/dc/elements/1.1/"
   xmlns:cc="http://creativecommons.org/ns#"
   xmlns:rdf="http://www.w3.org/1999/02/22-rdf-syntax-ns#"
   xmlns:svg="http://www.w3.org/2000/svg"
   xmlns="http://www.w3.org/2000/svg"
   xmlns:sodipodi="http://sodipodi.sourceforge.net/DTD/sodipodi-0.dtd"
   xmlns:inkscape="http://www.inkscape.org/namespaces/inkscape"
   width="17"
   height="17.001661"
   viewBox="0 0 17 17.001661"
   version="1.1"
   id="svg8"
   sodipodi:docname="banned.svg"
   style="fill:none"
   inkscape:version="0.92.5 (2060ec1f9f, 2020-04-08)">
  <metadata
     id="metadata14">
    <rdf:RDF>
      <cc:Work
         rdf:about="">
        <dc:format>image/svg+xml</dc:format>
        <dc:type
           rdf:resource="http://purl.org/dc/dcmitype/StillImage" />
        <dc:title></dc:title>
      </cc:Work>
    </rdf:RDF>
  </metadata>
  <defs
     id="defs12" />
  <sodipodi:namedview
     pagecolor="#ffffff"
     bordercolor="#666666"
     borderopacity="1"
     objecttolerance="10"
     gridtolerance="10"
     guidetolerance="10"
     inkscape:pageopacity="0"
     inkscape:pageshadow="2"
     inkscape:window-width="1867"
     inkscape:window-height="1016"
     id="namedview10"
     showgrid="false"
     fit-margin-top="0"
     fit-margin-left="0"
     fit-margin-right="0"
     fit-margin-bottom="0"
     inkscape:zoom="23.079965"
     inkscape:cx="3.0697207"
     inkscape:cy="7.0911103"
     inkscape:window-x="53"
     inkscape:window-y="27"
     inkscape:window-maximized="1"
     inkscape:current-layer="svg8"
     inkscape:pagecheckerboard="0"
     inkscape:snap-bbox="true"
     showborder="true" />
  <g
     id="g4730"
     style="fill:#757575;fill-opacity:1;stroke-width:0.89331931"
     transform="matrix(0.89691661,0,0,0.89691661,-2.1151765,3.8739066)" />
  <path
     id="path6"
     style="fill:#f35c5c;fill-opacity:1;stroke:#f35c5c;stroke-width:0.80123287;stroke-opacity:1"
     d="m 8.4999992,0.40061644 c -4.4732106,0 -8.09938276,3.62787876 -8.09938276,8.10107226 0,4.4731933 3.62617216,8.0993563 8.09938276,8.0993563 4.4732048,0 8.0993838,-3.626163 8.0993838,-8.0993563 0,-4.4731935 -3.626179,-8.10107226 -8.0993838,-8.10107226 z m 0,1.41567166 c 1.5019158,0 2.8887748,0.4950984 4.0050728,1.3315888 L 3.2062263,12.580538 C 2.3355535,11.451944 1.8162932,10.037487 1.8162932,8.5016887 c 0,-3.691558 2.9921368,-6.6854006 6.683706,-6.6854006 z M 13.82466,4.4605902 c 0.853381,1.1225953 1.360763,2.5225449 1.360763,4.0410985 0,3.6915613 -2.993853,6.6836843 -6.6854238,6.6836843 -1.4838514,0 -2.8549529,-0.48444 -3.963895,-1.302417 z"
     inkscape:connector-curvature="0" />
</svg>
