<?xml version="1.0" encoding="UTF-8" standalone="no"?>
<svg
   xmlns:dc="http://purl.org/dc/elements/1.1/"
   xmlns:cc="http://creativecommons.org/ns#"
   xmlns:rdf="http://www.w3.org/1999/02/22-rdf-syntax-ns#"
   xmlns:svg="http://www.w3.org/2000/svg"
   xmlns="http://www.w3.org/2000/svg"
   xmlns:sodipodi="http://sodipodi.sourceforge.net/DTD/sodipodi-0.dtd"
   xmlns:inkscape="http://www.inkscape.org/namespaces/inkscape"
   width="6.8571429"
   height="6"
   viewBox="0 0 6.8571429 6"
   version="1.1"
   id="svg4"
   sodipodi:docname="logout.svg"
   style="fill:none"
   inkscape:version="0.92.5 (2060ec1f9f, 2020-04-08)">
  <metadata
     id="metadata10">
    <rdf:RDF>
      <cc:Work
         rdf:about="">
        <dc:format>image/svg+xml</dc:format>
        <dc:type
           rdf:resource="http://purl.org/dc/dcmitype/StillImage" />
        <dc:title></dc:title>
      </cc:Work>
    </rdf:RDF>
  </metadata>
  <defs
     id="defs8" />
  <sodipodi:namedview
     pagecolor="#ffffff"
     bordercolor="#666666"
     borderopacity="1"
     objecttolerance="10"
     gridtolerance="10"
     guidetolerance="10"
     inkscape:pageopacity="0"
     inkscape:pageshadow="2"
     inkscape:window-width="1305"
     inkscape:window-height="693"
     id="namedview6"
     showgrid="false"
     fit-margin-top="0"
     fit-margin-left="0"
     fit-margin-right="0"
     fit-margin-bottom="0"
     inkscape:zoom="11.8"
     inkscape:cx="-2.8050847"
     inkscape:cy="7"
     inkscape:window-x="238"
     inkscape:window-y="273"
     inkscape:window-maximized="0"
     inkscape:current-layer="svg4" />
  <path
     d="M 0.4285714,0 C 0.19188,0 0,0.19188 0,0.428571 V 5.571429 C 0,5.808129 0.19188,6 0.4285714,6 0.6652628,6 0.8571428,5.808129 0.8571428,5.571429 V 0.428571 C 0.8571428,0.19188 0.6652628,0 0.4285714,0 Z m 4.4112429,3.982671 c -0.1673572,0.167358 -0.1673572,0.438729 0,0.606086 0.1673571,0.167357 0.4387285,0.167357 0.6060857,0 L 6.7316143,3.303043 C 6.8119714,3.222686 6.8571428,3.113657 6.8571428,3 c 0,-0.113666 -0.045171,-0.222673 -0.1255285,-0.303047 L 5.4459,1.411239 c -0.1673572,-0.167366 -0.4387286,-0.167366 -0.6060857,0 -0.1673572,0.16737 -0.1673572,0.438724 0,0.606094 l 0.5541,0.554096 H 2.1428571 c -0.2366957,0 -0.4285714,0.19188 -0.4285714,0.428571 0,0.2367 0.19188,0.428571 0.4285714,0.428571 h 3.2510572 z"
     id="path2"
     inkscape:connector-curvature="0"
     style="clip-rule:evenodd;fill:#f9f9f9;fill-rule:evenodd;stroke-width:0.99999994;fill-opacity:1" />
</svg>
