<?xml version="1.0" encoding="UTF-8" standalone="no"?>
<svg
   xmlns:dc="http://purl.org/dc/elements/1.1/"
   xmlns:cc="http://creativecommons.org/ns#"
   xmlns:rdf="http://www.w3.org/1999/02/22-rdf-syntax-ns#"
   xmlns:svg="http://www.w3.org/2000/svg"
   xmlns="http://www.w3.org/2000/svg"
   xmlns:sodipodi="http://sodipodi.sourceforge.net/DTD/sodipodi-0.dtd"
   xmlns:inkscape="http://www.inkscape.org/namespaces/inkscape"
   width="17"
   height="17"
   viewBox="0 0 17 17"
   version="1.1"
   id="svg14"
   sodipodi:docname="user-group.svg"
   style="fill:none"
   inkscape:version="0.92.5 (2060ec1f9f, 2020-04-08)">
  <metadata
     id="metadata20">
    <rdf:RDF>
      <cc:Work
         rdf:about="">
        <dc:format>image/svg+xml</dc:format>
        <dc:type
           rdf:resource="http://purl.org/dc/dcmitype/StillImage" />
        <dc:title></dc:title>
      </cc:Work>
    </rdf:RDF>
  </metadata>
  <defs
     id="defs18" />
  <sodipodi:namedview
     pagecolor="#ffffff"
     bordercolor="#666666"
     borderopacity="1"
     objecttolerance="10"
     gridtolerance="10"
     guidetolerance="10"
     inkscape:pageopacity="0"
     inkscape:pageshadow="2"
     inkscape:window-width="1231"
     inkscape:window-height="773"
     id="namedview16"
     showgrid="false"
     fit-margin-top="0"
     fit-margin-left="0"
     fit-margin-right="0"
     fit-margin-bottom="0"
     inkscape:zoom="11.8"
     inkscape:cx="20.627449"
     inkscape:cy="-2.4367973"
     inkscape:window-x="414"
     inkscape:window-y="189"
     inkscape:window-maximized="0"
     inkscape:current-layer="g845"
     units="px" />
  <g
     id="g845"
     transform="matrix(0.94444444,0,0,0.94444444,-0.94444444,2.833333)"
     style="stroke-width:1.05882359">
    <path
       style="fill:#2b222d;fill-opacity:1;stroke-width:1.05882359"
       id="path2"
       d="m 13.026282,1.5585224 c 0,1.65685 -1.3431,3 -3,3 -1.6568505,0 -3.0000005,-1.34315 -3.0000005,-3 0,-1.65684993 1.34315,-3 3.0000005,-3 1.6569,0 3,1.34315007 3,3 z"
       inkscape:connector-curvature="0" />
    <path
       style="fill:#2b222d;fill-opacity:1;stroke-width:1.05882359"
       id="path4"
       d="m 18.026282,3.5585224 c 0,1.10457 -0.8954,2 -2,2 -1.1046,0 -2,-0.89543 -2,-2 0,-1.10457 0.8954,-2 2,-2 1.1046,0 2,0.89543 2,2 z"
       inkscape:connector-curvature="0" />
    <path
       style="fill:#2b222d;fill-opacity:1;stroke-width:1.05882359"
       id="path6"
       d="m 14.026282,10.558522 c 0,-2.2090996 -1.7909,-3.9999996 -4,-3.9999996 -2.2091405,0 -4.0000005,1.7909 -4.0000005,3.9999996 v 3 h 8.0000005 z"
       inkscape:connector-curvature="0" />
    <path
       style="fill:#2b222d;fill-opacity:1;stroke-width:1.05882359"
       id="path8"
       d="m 6.0262815,3.5585224 c 0,1.10457 -0.89543,2 -2,2 -1.10457,0 -2,-0.89543 -2,-2 0,-1.10457 0.89543,-2 2,-2 1.10457,0 2,0.89543 2,2 z"
       inkscape:connector-curvature="0" />
    <path
       style="fill:#2b222d;fill-opacity:1;stroke-width:1.05882359"
       id="path10"
       d="m 16.026282,13.558522 v -3 c 0,-1.0540996 -0.2718,-2.0447996 -0.7493,-2.9056996 0.2395,-0.0616 0.4906,-0.0943 0.7493,-0.0943 1.6569,0 3,1.3431 3,2.9999996 v 3 z"
       inkscape:connector-curvature="0" />
    <path
       inkscape:connector-curvature="0"
       style="fill:#2b222d;fill-opacity:1;stroke-width:1.05882359"
       id="path12"
       d="m 4.7755415,7.6528224 c -0.47741,0.8609 -0.74926,1.8516 -0.74926,2.9056996 v 3 h -3 v -3 c 0,-1.6568996 1.34315,-2.9999996 3,-2.9999996 0.25871,0 0.50977,0.0327 0.74926,0.0943 z" />
  </g>
</svg>
